----------------------------------------------------------------
Thu May 24 15:31:35 CEST 2018:
Booting Derby version The Apache Software Foundation - Apache Derby - 10.13.1.1 - (1765088): instance a816c00e-0163-9258-fc14-000002709128 
on database directory memory:/home/tp/Documents/jEE/j2e-cartes/CardGame/User/Rest-JPA-SpringBoot-Sample-junit-mockito/testdb with class loader sun.misc.Launcher$AppClassLoader@1ee12a7 
Loaded from file:/home/tp/.m2/repository/org/apache/derby/derby/10.13.1.1/derby-10.13.1.1.jar
java.vendor=Oracle Corporation
java.runtime.version=1.8.0_141-8u141-b15-3~14.04-b15
user.dir=/home/tp/Documents/jEE/j2e-cartes/CardGame/User/Rest-JPA-SpringBoot-Sample-junit-mockito
os.name=Linux
os.arch=i386
os.version=3.13.0-34-generic
derby.system.home=null
Database Class Loader started - derby.database.classpath=''
